?var:course.short Week 5 In-Class Activity: Let us JOIN Our Tables Together – STA 9750 Submission Material
…
Note that this is all still evaluated row-by-row independently. If you want to do groupwise operations, you need a group_by and likely a summarize to follow.

penguins |>
    group_by(species) |>
    mutate(label = case_when(
        body_mass == max(body_mass, na.rm=TRUE) ~ "Biggest of Species", 
        body_mass == min(body_mass, na.rm=TRUE) ~ "Smallest of Species", 
        TRUE ~ "In the middle"
    ))

# A tibble: 344 × 9
# Groups:   species [3]
   species island    bill_len bill_dep flipper_len body_mass sex     year label 
   <fct>   <fct>        <dbl>    <dbl>       <int>     <int> <fct>  <int> <chr> 
 1 Adelie  Torgersen     39.1     18.7         181      3750 male    2007 In th…
 2 Adelie  Torgersen     39.5     17.4         186      3800 female  2007 In th…
 3 Adelie  Torgersen     40.3     18           195      3250 female  2007 In th…
 4 Adelie  Torgersen     NA       NA            NA        NA <NA>    2007 In th…
 5 Adelie  Torgersen     36.7     19.3         193      3450 female  2007 In th…
 6 Adelie  Torgersen     39.3     20.6         190      3650 male    2007 In th…
 7 Adelie  Torgersen     38.9     17.8         181      3625 female  2007 In th…
 8 Adelie  Torgersen     39.2     19.6         195      4675 male    2007 In th…
 9 Adelie  Torgersen     34.1     18.1         193      3475 <NA>    2007 In th…
10 Adelie  Torgersen     42       20.2         190      4250 <NA>    2007 In th…
# ℹ 334 more rows
…
