?var:course.short Week 11 In-Class Activity: HTML Import – STA 9750 Submission Material
…
Hint: You may need to use unnest to convert a list column into something more usable.

Solution

CUNYs <- CUNYs |> rowwise() |> mutate(info = get_cuny_coordinates(link))
## Or with `map`
CUNYs <- CUNYs |> mutate(info = map(link, get_cuny_coordinates))

## Then unnest the info column

CUNYs <- CUNYs |> unnest(info)

CUNYs

# A tibble: 26 × 4
   name                                             link      latitude longitude
   <chr>                                            <chr>        <dbl>     <dbl>
 1 Baruch College                                   https://…     40.7     -74.0
 2 The City College                                 https://…     40.8     -74.0
 3 Graduate Center                                  https://…     40.7     -74.0
 4 Graduate School of Public Health & Health Policy https://…     40.8     -73.9
 5 Guttman Community College                        https://…     40.8     -74.0
 6 Hunter College                                   https://…     40.8     -74.0
 7 John Jay College of Criminal Justice             https://…     40.8     -74.0
 8 Macaulay Honors College                          https://…     40.8     -74.0
 9 Manhattan Community College                      https://…     40.7     -74.0
10 Newmark Graduate School of Journalism            https://…     40.8     -74.0
# ℹ 16 more rows
…
    RECIPES <- data.frame()
    
    for(r in html_recipes){
        RECIPES <- rbind(RECIPES, process_recipe(r))
    }
    
    RECIPES
}

We can test this on the page of bubbly recipes:

process_url("https://cocktails.hadley.nz/tag-bubbles.html")

# A tibble: 29 × 2
   title                    ingredients               
   <chr>                    <chr>                     
 1 "Air mail"               3 oz champagne            
 2 "Air mail"               1 oz rum, white           
 3 "Air mail"               ½ oz lime juice           
 4 "Air mail"               ¼ oz simple syrup         
 5 "Campari spritz\n\nfizz" 3 oz champagne            
 6 "Campari spritz\n\nfizz" 1½ oz Campari             
 7 "Campari spritz\n\nfizz" 1 oz soda water           
 8 "Campari spritz\n\nfizz" 2 drops lime acid         
 9 "Dandelo"                2 oz luxardo bitter bianco
10 "Dandelo"                ½ oz lemon juice          
# ℹ 19 more rows
…
Solution

library(tidyverse)
library(httr2)
library(rvest)

ALL_RECIPES <- data.frame()

for(page in PAGE_URLS){
    ALL_RECIPES <- rbind(ALL_RECIPES, process_url(page))
}

ALL_RECIPES

# A tibble: 3,548 × 2
   title                                ingredients          
   <chr>                                <chr>                
 1 "Bachelor"                           1 oz rum, dark       
 2 "Bachelor"                           1 oz Meletti         
 3 "Bachelor"                           ¼ oz absinthe        
 4 "Bachelor"                           1 dash orange bitters
 5 "Bachelor"                           1 dash Angostura     
 6 "Banana Manhattan"                   1½ oz rum, aged      
 7 "Banana Manhattan"                   ½ oz sweet vermouth  
 8 "Banana Manhattan"                   ½ oz banana liqueur  
 9 "Banana Manhattan"                   1 dash absinthe      
10 "Industry sour\n\nadventurous, sour" 1 oz absinthe, pernod
# ℹ 3,538 more rows
…
BASE_URL <- "https://cocktails.hadley.nz/"

read_html(BASE_URL) |> 
    html_elements("nav a") |> 
    html_attr("href") |>
    map(\(p) request(BASE_URL) |> req_url_path(p)) |>
    map(req_perform) |>
    map(resp_body_html) |> 
    map(html_elements, "article") |> 
    reduce(c) |>
    map(process_recipe) |> 
    list_rbind()

# A tibble: 3,548 × 2
   title                                ingredients          
   <chr>                                <chr>                
 1 "Bachelor"                           1 oz rum, dark       
 2 "Bachelor"                           1 oz Meletti         
 3 "Bachelor"                           ¼ oz absinthe        
 4 "Bachelor"                           1 dash orange bitters
 5 "Bachelor"                           1 dash Angostura     
 6 "Banana Manhattan"                   1½ oz rum, aged      
 7 "Banana Manhattan"                   ½ oz sweet vermouth  
 8 "Banana Manhattan"                   ½ oz banana liqueur  
 9 "Banana Manhattan"                   1 dash absinthe      
10 "Industry sour\n\nadventurous, sour" 1 oz absinthe, pernod
# ℹ 3,538 more rows
…
